<?xml version="1.0" encoding="utf-8"?>
<svg version="1.1" id="Ebene_1" xmlns="http://www.w3.org/2000/svg" x="0px"
     y="0px" viewBox="0 0 433.51 357.96" style="enable-background:new 0 0 433.51 357.96;" xml:space="preserve">
<style type="text/css">
	.st1{fill:#EE7F00;}
	.st2{fill:#FFFFFF;}
</style>
    <path class="st1" d="M280.16,69.28c0,0-16.76-8.02-31.44-24.27c-10.3-11.4-31.58-4.38-38.48,1.14
		c-17.3,13.86,0.35,86.69-31.65,112.74c-42.66,34.73-32.12,99.1-23.17,119.69h141.83c0,0-3.94-28.78-35.36-18.85
		c0,0,43.09-32.57,25.01-59.64c-7.51-11.24-27.12,2.1-27.12,2.1s2.69-22.91-15.55-62.73c-15.68-34.23-5.18-59.14-5.18-59.14
		S280.98,90.51,280.16,69.28z"/>
    <path class="st1" d="M231.34,50.18c0,0-26.02-16.37-20.48-50.18c1.32-0.18,35.28,8.92,18.34,35.11c-1,1.55-2.71,5.31-2.71,5.31
		S231.16,46.9,231.34,50.18z"/>
    <path class="st1" d="M219.57,56.61c0,0-2.98-28-38.42-44.66c-0.83,0.81-8.8,29.91,24.9,34.03c1.99,0.24,6.48,1.34,6.48,1.34
		S216.48,54.49,219.57,56.61z"/>
    <path class="st1" d="M154.58,278.21c-18.47,0.37-97.45-99.67-88.29-104.75c4.96-2.75,70.37,81.3,103.92,69.52
		C170.2,242.97,164.21,278.01,154.58,278.21z"/>
    <path class="st2" d="M183.25,211.09c0,0,29.27,2.46,39.05,2.38c7.61-0.07,30.33-2.38,30.33-2.38s-0.44,50.25-53.85,49.64
		C198.78,260.73,228.59,218.82,183.25,211.09z"/>
    <g>
		<path class="st2" d="M233.83,200.7c0,0,19.18,4.67,18.8-5.05c0,0-7.67-3.67-14.38-11.1c-2.49-2.75-6.37-3.16-9.95-2.56
			c-0.56,0.1-2.59,0.62-2.59,0.62c-1.03,0.32-2,0.7-2.84,1.11c0,0-1.8,0.84-2.49,1.58c-5.4,4.98-7.92,23.48-11.58,37.78h25.57
			C229.96,209.88,233.83,200.7,233.83,200.7z"/>
        <path class="st2" d="M229.32,180.02c7.75-11.98-7.78-16.14-8.39-16.06c-1.43,8.73,1.74,14.91,4.77,18.65
			c0.83-0.25,1.7-0.47,2.59-0.62C228.56,181.43,229.01,180.5,229.32,180.02z"/>
        <path class="st2" d="M222.86,183.72c-2.18-4.34-6.6-10.1-15.52-14.29c-0.38,0.37-4.03,13.68,11.39,15.57
			c0.41,0.05,1.06,0.18,1.65,0.31c0.09-0.08,0.18-0.16,0.27-0.23C221.2,184.62,221.96,184.16,222.86,183.72z"/>
	</g>
    <ellipse class="st2" cx="238.08" cy="55.76" rx="4.84" ry="3.59"/>
    <ellipse class="st1" cx="232.29" cy="187.81" rx="2.24" ry="1.66"/>
    <ellipse class="st1" cx="220.54" cy="281.5" rx="147.43" ry="4.44"/>
</svg>
